…
``` r
reject_null = function(x) {
  sim_results %>% 
  filter(term == "(Intercept)") %>% 
  select(beta1, p.value) %>% 
  filter(p.value < 0.05) 
}

reject_null(x)
```

    ## # A tibble: 21 x 2
    ##    beta1  p.value
    ##    <dbl>    <dbl>
    ##  1     0 0.0156  
    ##  2     0 0.0101  
    ##  3     0 0.0173  
    ##  4     0 0.000311
    ##  5     0 0.00444 
    ##  6     2 0.000249
    ##  7     2 0.0421  
    ##  8     2 0.00436 
    ##  9     3 0.0269  
    ## 10     4 0.000943
    ## # … with 11 more rows
…
